0000000000000000000000000200
4010000480000000000000000000
0000000000000000000000000302
0404000000000000000000000403
0040000040000000000000000000
0000000000000000000000000507
00000000000000000000100001a9
000000000000000000000000063d
4010000480000000000000000000
0000000000000000000000000309
040400000000000000000000040a
2040100020000000000000000000
000000000000000000000000070e
00000000000000000000080001a9
000000000000000000000000083d
0000000000000000000000000919
4010000480000000000000000000
0000000000000000000000000311
0404000000000000000000000412
0040000010000000000000000a3d
0000000000000000000000000b19
4010000480000000000000000000
0000000000000000000000000316
0404000000000000000000000417
0040000008000000000000000000
0000000000000000000000001600
0000000000000000000000000c3d
0000000000000000000000000d1d
000020000000020000000000013d
400020000000001000000000013d
4010200000000000000000000c3d
0000000000000000000000000131
0810000001000000000000000c3d
0000000000000000000000000131
0810000001000000000000000000
0000000000000000000000000323
0404000000000000000000000424
0049000000000000000000000000
0000000000000000000000000326
0404000000000000000000000427
0042000000000000000000000000
0010800000000000000000000c3d
0000000000000000000000000131
0010201001000000000000000c3d
0000000000000000000000000131
0000285001000000000000000000
0010203000000000000000000c3d
0000000000000000000000000131
0010001081000000000000000c3d
0000000000000000000000000331
0404000000000000000000000432
0000000000000000000000000d35
004000000000020000000000013d
0049000000000000000000000000
0000000000000000000000000336
0404000000000000000000000437
0042000000000000000000000000
000080000000001000000000013d
0000000000000000000000000d3c
100000000200020000000000013d
080000000100001000000000013d
0000000000000000000000001700
00000000000000000000000001a9
0000000000000000002000000100
00000000000000000400000001a9
00000000000000000800000001a9
00000000000000000100000001a9
00000000000000000200000001a9
1000000000002100000000000000
0000000000000001e000000001a9
00000000000000880000000001a9
0000000000000000000000000e4c
0180000000001000000000000000
0000000000000000000000000349
022400000000000000000000044a
00000000000000000000000001a9
00004000000010000000000001a9
0000000000000000000000000e55
0180000000000020000000000000
000000000000000000000000034f
0224000000000000000000000450
0188000000000040000000000000
0000000000000000000000000352
0224000000000000000000000453
00000000000000000000000001a9
00004000000000400000000001a9
0010028000000000000000000000
0000000000000000000000000357
0404000000000000000000000458
0040000000002200000000000000
0000000000000001e000000001a9
0010028000000000000000000000
000000000000000000000000035c
040400000000000000000000045d
0052028000000000000000000000
000000000000000000000000035f
0404000000000000000000000460
0041000000000000000000000000
00008000000000900000000001a9
0000010000000000000000000000
0190020000001000000000000000
0000000000000000000000000365
0224000000000000000000000466
00000000000000000000000001a9
0000010000000000000000000000
0190020000000020000000000000
000000000000000000000000036a
022400000000000000000000046b
0000010000000000000000000000
0190020000000040000000000000
000000000000000000000000036e
022400000000000000000000046f
00000000000000000000000001a9
40000000000000800000800001a9
00000000000000400001000001a9
00000000000000800008000001a9
00000000000000400010000001a9
00000200000000800000000001a9
00000400000000400000000001a9
0000000000407100600000000000
00000000000000018000000001a9
0000000000207100600000000000
00000000000000018000000001a9
0000000000107000600000000000
00000000000000018000000001a9
0000000000087000600000000000
00000000000000018000000001a9
0000000000047100000000000000
0000000000000001e000000001a9
0000000000027100000000000000
0000000000000001e000000001a9
0000000000017100000000000000
0000000000000001e000000001a9
000000000000f000000000000000
0000000000000001e000000001a9
0000000000000800400000000000
0000000000000001a000000001a9
0000000000000400400000000000
0000000000000001a000000001a9
0000000000800000000000000fa9
00000018840000000000000001a9
00000008020000000000000001a9
00000000000000000000040001a9
0000010000000000000000000000
0190020200000000000000000000
0000000000000000000000000391
0224000000000000000000000492
0000010000000000000000000000
0190020100000000000000000000
0000000000000000000000000395
0224000000000000000000000496
00000008020000000000000001a9
0010028000000000000000000000
0000000000000000000000000399
040400000000000000000000049a
0040000000000002000000000000
0010028000000000000000000000
000000000000000000000000039d
040400000000000000000000049e
0040000000000004000000000000
0010028000000000000000000000
00000000000000000000000003a1
04040000000000000000000004a2
0042000000000000000000000000
0010028000000000000000000000
00000000000000000000000003a5
04040000000000000000000004a6
0041000000000000000000000000
00008008000000000000000001a9
0000000000000000000000001000
0000010000000000000000000000
0190020200000000000000000000
00000000000000000000000003ac
02240000000000000000000004ad
0000010000000000000000000000
0190020100000000000000000000
00000000000000000000000003b0
02240000000000000000000004b1
0000010000000000000000000000
0190020000000000008000000000
00000000000000000000000003b4
02240000000000000000000004b5
0000010000000000000000000000
0190020000000000004000000000
00000000000000000000000003b8
02240000000000000000000004b9
00000000000000000000000011bc
00000000040000000004008001c5
00000000000000000000000012be
00000000000000000004420001c5
00000000000000000000000013c0
00000000000000000004410001c5
00000000000000000000000014c2
00000000000000000004404001c5
00000000000000000000000015c4
00000000000000001004202001c5
0000000000000000000440000000
0010001000000000000280000000
00000000000000000000000003c6
04040000000000000000000004c7
0049000000000000000000000000
00000000000000000000000003c9
04040000000000000000000004ca
0042000000000000000000000000
0000800800000000050000000100
0000000000000000000000000000
0000000000000000000000000000
0000000000000000000000000000
0000000000000000000000000000
0000000000000000000000000000
0000000000000000000000000000
0000000000000000000000000000
0000000000000000000000000000
0000000000000000000000000000
0000000000000000000000000000
0000000000000000000000000000
0000000000000000000000000000
0000000000000000000000000000
0000000000000000000000000000
0000000000000000000000000000
0000000000000000000000000000
0000000000000000000000000000
0000000000000000000000000000
0000000000000000000000000000
0000000000000000000000000000
0000000000000000000000000000
0000000000000000000000000000
0000000000000000000000000000
0000000000000000000000000000
0000000000000000000000000000
0000000000000000000000000000
0000000000000000000000000000
0000000000000000000000000000
0000000000000000000000000000
0000000000000000000000000000
0000000000000000000000000000
0000000000000000000000000000
0000000000000000000000000000
0000000000000000000000000000
0000000000000000000000000000
0000000000000000000000000000
0000000000000000000000000000
0000000000000000000000000000
0000000000000000000000000000
0000000000000000000000000000
0000000000000000000000000000
0000000000000000000000000000
0000000000000000000000000000
0000000000000000000000000000
0000000000000000000000000000
0000000000000000000000000000
0000000000000000000000000000
0000000000000000000000000000
0000000000000000000000000000
0000000000000000000000000000
0000000000000000000000000000
