100 05980000	//SUB R6, R6, 0
104 04880000	//SUB R2, R2, 0
108 00880014	//ADD R2, R2, 20
10C 04CC0000	//SUB R3, R3, 0
110 00CC1000	//ADD R3, R3, 1000h
114 250C0000	//LD R4, R3, 0
118 254C0000	//LD R5, R3, 0
11C 11140000	//CMP R4, R5, 0
120 3E000008	//JLE PC+8
124 5CA00000	//PUSH R5
128 60800000	//POP R4
12C 00D80004	//ADD R3, R6, 4
130 04980001	//SUB R2, R6, 1
134 321FFFE0	//JNE PC-32
littleEndian
1000 0F000000
1004 7e000002
1008 03000001
100C 22000000
1010 24000000
1014 22000000
1018 25000000
101C 02000000
1020 02000000
1024 08000000
1028 02000001
102C 00000000
1030 22000000
1034 02000000
1038 6F000000
103C 4E000000
1040 01000000
1044 02000000
1048 02000000
104C 02000080