0	false
0	false
1	true
1	true
2	true
2	true
3	true
3	true
4	true
4	true
5	true
5	true
6	false
6	true
7	false
7	true
8	false
8	true
9	false
9	true
10	false
10	true
11	true
11	true
12	true
12	true
13	true
13	true
14	true
14	false
15	true
15	false
16	true
16	false
17	true
17	false
18	true
18	false
19	true
19	false
20	true
20	false
21	true
21	false
22	true
22	false
23	true
23	false
24	true
24	false
25	true
25	false
26	true
26	false
27	true
27	true
28	false
28	true
29	false
29	true
30	false
30	true
31	true
31	true
32	true
32	true
33	true
33	true
34	true
34	true
35	true
35	true
36	false
36	true
37	false
37	true
38	false
38	true
39	false
39	true
40	false
40	true
41	true
41	true
42	true
42	false
43	true
43	false
44	true
44	false
45	true
45	false
46	true
46	false
47	true
47	false
48	true
48	false
49	true
49	false
50	true
50	false
51	true
51	false
52	true
52	false
53	true
53	true
54	true
54	true
55	true
55	true
56	false
56	true
57	false
57	true
58	false
58	true
59	false
59	true
60	false
60	true
61	true
61	true
62	true
62	true
63	true
63	true
64	true
64	true
65	true
65	true
66	false
66	false
67	true
67	true
68	false
68	false
69	true
69	true
70	false
70	false
71	true
71	true
72	true
72	false
73	true
73	false
74	true
74	false
75	true
75	false
76	true
76	false
77	true
77	false
78	true
78	false
79	true
79	true
80	false
80	true
81	true
81	true
82	true
82	true
83	true
83	true
84	true
84	true
85	true
85	true
86	false
86	true
87	false
87	true
88	false
88	true
89	false
89	true
90	false
90	true
91	true
91	true
92	true
92	false
93	true
93	false
94	true
94	false
95	true
95	false
96	true
96	false
97	true
97	false
98	true
98	false
99	true
99	false
100	true
100	false
101	true
101	false
102	true
102	false
103	true
103	false
104	true
104	false
105	true
105	true
106	false
106	true
107	false
107	true
108	false
108	true
109	false
109	true
110	false
110	true
111	true
111	true
112	true
112	true
113	true
113	true
114	true
114	true
115	true
115	true
116	false
116	true
117	false
117	true
118	false
118	true
119	false
119	true
